[gd_scene load_steps=6 format=1]

[ext_resource path="res://scenes/smallWorld/stone0.png" type="Texture" id=1]
[ext_resource path="res://scenes/smallWorld/stone1.png" type="Texture" id=2]
[ext_resource path="res://scenes/smallWorld/stone2.png" type="Texture" id=3]
[ext_resource path="res://scenes/smallWorld/stone3.png" type="Texture" id=4]
[ext_resource path="res://scenes/smallWorld/stone4.png" type="Texture" id=5]

[node name="tilemapScenery" type="Node2D"]

[node name="Sprite" type="Sprite" parent="."]

texture = ExtResource( 1 )
region_rect = Rect2( 0, 0, 32, 32 )

[node name="Sprite1" type="Sprite" parent="."]

transform/pos = Vector2( 64, 0 )
texture = ExtResource( 2 )
region_rect = Rect2( 0, 0, 32, 32 )

[node name="Sprite2" type="Sprite" parent="."]

transform/pos = Vector2( 128, 0 )
texture = ExtResource( 3 )
region_rect = Rect2( 0, 0, 32, 32 )

[node name="Sprite3" type="Sprite" parent="."]

transform/pos = Vector2( 192, 0 )
texture = ExtResource( 4 )
region_rect = Rect2( 0, 0, 32, 32 )

[node name="Sprite4" type="Sprite" parent="."]

transform/pos = Vector2( 256, 0 )
texture = ExtResource( 5 )
region_rect = Rect2( 0, 0, 32, 32 )


