[gd_scene load_steps=4 format=1]

[ext_resource path="res://scenes/smallWorld/destructible0.png" type="Texture" id=1]

[sub_resource type="GDScript" id=1]

script/source = "extends StaticBody2D

# class member variables go here, for example:
# var a = 2
# var b = \"textvar\"

func _ready():
	pass

func _process(delta):
	if !get_node(\"particulesWhenDestroyed\").is_emitting():
		queue_free()

func _on_area_body_enter( body ):
	if body.get_groups().find(\"player\") != -1:
		body.get_node(\"destroyAudioPlayer\").play(\"destroy\")
		var camera = body.get_node(\"camera\")
		camera.shake(0.2 , 15, 8)
		get_node(\"particulesWhenDestroyed\").set_emitting(true)
		get_node(\"sprite\").set_hidden(true)
		set_process(true)


func changeSprite(id_sprite):
	if id_sprite == 0:
		get_node(\"sprite\").set_texture(load(\"res://scenes/smallWorld/destructible0.png\"))
		get_node(\"particulesWhenDestroyed\").set_texture(load(\"res://scenes/smallWorld/destructible0_particule.png\"))
	elif id_sprite == 1:
		get_node(\"sprite\").set_texture(load(\"res://scenes/smallWorld/stone5.png\"))
		get_node(\"particulesWhenDestroyed\").set_texture(load(\"res://scenes/smallWorld/stone_particule.png\"))
	elif id_sprite == 2:
		get_node(\"sprite\").set_texture(load(\"res://scenes/smallWorld/stone6.png\"))
		get_node(\"particulesWhenDestroyed\").set_texture(load(\"res://scenes/smallWorld/stone_particule.png\"))
	elif id_sprite == 3:
		get_node(\"sprite\").set_texture(load(\"res://scenes/smallWorld/stone7.png\"))
		get_node(\"particulesWhenDestroyed\").set_texture(load(\"res://scenes/smallWorld/stone_particule.png\"))
	elif id_sprite == 4:
		get_node(\"sprite\").set_texture(load(\"res://scenes/smallWorld/stone8.png\"))
		get_node(\"particulesWhenDestroyed\").set_texture(load(\"res://scenes/smallWorld/stone_particule.png\"))
	elif id_sprite == 5:
		get_node(\"sprite\").set_texture(load(\"res://scenes/smallWorld/stone9.png\"))
		get_node(\"particulesWhenDestroyed\").set_texture(load(\"res://scenes/smallWorld/stone_particule.png\"))
	
	"

[sub_resource type="RectangleShape2D" id=2]

custom_solver_bias = 0.0
extents = Vector2( 13.9065, 13.7689 )

[node name="destructible" type="StaticBody2D"]

input/pickable = false
collision/layers = 1
collision/mask = 1
constant_linear_velocity = Vector2( 0, 0 )
constant_angular_velocity = 0.0
friction = 1.0
bounce = 0.0
script/script = SubResource( 1 )

[node name="sprite" type="Sprite" parent="."]

texture = ExtResource( 1 )
region_rect = Rect2( 0, 0, 32, 32 )

[node name="area" type="Area2D" parent="."]

input/pickable = false
shapes/0/shape = SubResource( 2 )
shapes/0/transform = Matrix32( 1, 0, 0, 1, 0, 0 )
shapes/0/trigger = false
gravity_vec = Vector2( 0, 1 )
gravity = 98.0
linear_damp = 0.1
angular_damp = 1.0

[node name="collisionShape" type="CollisionShape2D" parent="area"]

shape = SubResource( 2 )
trigger = false
_update_shape_index = 0

[node name="particulesWhenDestroyed" type="Particles2D" parent="."]

config/amount = 32
config/lifetime = 2.39266
config/time_scale = 3.0
config/emit_timeout = 1.0
config/emitting = false
config/process_mode = 1
config/local_space = false
params/direction = 0.0
params/spread = 180.0
params/linear_velocity = 134.74
params/spin_velocity = 269.48
params/orbit_velocity = -0.02
params/gravity_direction = 0.0
params/gravity_strength = 9.8
params/radial_accel = 0.0
params/tangential_accel = 0.0
params/damping = 0.0
params/initial_angle = 0.0
params/initial_size = 1.0
params/final_size = 1.0
params/hue_variation = 0.0
params/anim_speed_scale = 1.0
params/anim_initial_pos = 0.0

[connection signal="body_enter" from="area" to="." method="_on_area_body_enter"]


